module gitlab.com/cyverse/terraform-http-backend

go 1.21

require (
	github.com/golang-jwt/jwt/v5 v5.1.0
	github.com/gorilla/mux v1.8.1
	github.com/jackc/pgx/v5 v5.5.5
	github.com/kelseyhightower/envconfig v1.4.0
	github.com/mattn/go-sqlite3 v1.14.17
	github.com/rs/xid v1.5.0
	github.com/sirupsen/logrus v1.9.3
	github.com/stretchr/testify v1.8.4
)

require (
	github.com/davecgh/go-spew v1.1.1 // indirect
	github.com/jackc/pgpassfile v1.0.0 // indirect
	github.com/jackc/pgservicefile v0.0.0-20221227161230-091c0ba34f0a // indirect
	github.com/jackc/puddle/v2 v2.2.1 // indirect
	github.com/kr/text v0.2.0 // indirect
	github.com/pmezard/go-difflib v1.0.0 // indirect
	github.com/rogpeppe/go-internal v1.9.0 // indirect
	golang.org/x/crypto v0.21.0 // indirect
	golang.org/x/sync v0.1.0 // indirect
	golang.org/x/sys v0.18.0 // indirect
	golang.org/x/text v0.14.0 // indirect
	gopkg.in/yaml.v3 v3.0.1 // indirect
)
